{
  "checksums": {
    "spec/spec_helper.rb": "a55d1e6483344f8ec6963fcb2c220372",
    "modules/phpmyadmin/files/phpMyAdmin.zip": "cff1445d9d1a4ca3166b26edaf763514",
    "README": "2339d8c5bcdfe0dcf56a72b3d61d8741",
    "tests/init.pp": "dbbc85dc39303725d65db110ca289ddb",
    "manifests/init.pp": "864c234c81780f6bcd7e9a40cb86dd9c",
    "modules/phpmyadmin/templates/phpMyAdmin.conf.erb": "5226f537cde3fff7851592e277bc34b1",
    "modules/phpmyadmin/templates/config.inc.php.erb": "1f18b2786d884bb08f8a24f711078315",
    "modules/phpmyadmin/manifests/init.pp": "f0c19d9263e8845a318134f957f13d74",
    "Modulefile": "9ec888bd97fc39e9ce2206c5584a829f"
  },
  "project_page": "UNKNOWN",
  "license": "Apache License, Version 2.0",
  "source": "UNKNOWN",
  "description": "UNKNOWN",
  "version": "0.1.0",
  "types": [

  ],
  "summary": "UNKNOWN",
  "name": "rabinshr-phpmyadmin",
  "author": "rabinshr",
  "dependencies": [

  ]
}